.b[Time series decomposition I]
…
# Classical decomposition

$$
`\begin{aligned}
\dfrac{1}{m}\displaystyle\sum^k_{j = -k}y_{t+j}  \ \ \ \ \ \ \ \ \ \ \ \ \ \ \text{where} \ m = 2k + 1
\end{aligned}`
$$

```r
us_private_service
```

```
#> # A tsibble: 477 x 7 [1M]
#>       Month Title                     Employed    ma3    ma5    ma9   ma15
#>       <mth> <chr>                        <dbl>  <dbl>  <dbl>  <dbl>  <dbl>
#>  1 1980 Jan Private Service-Providing    49040    NA     NA     NA     NA 
#>  2 1980 Feb Private Service-Providing    49041 49141.    NA     NA     NA 
#>  3 1980 Mar Private Service-Providing    49343 49322. 49358     NA     NA 
#>  4 1980 Apr Private Service-Providing    49581 49570. 49557     NA     NA 
#>  5 1980 May Private Service-Providing    49785 49800. 49741. 49671     NA 
#>  6 1980 Jun Private Service-Providing    50035 49927. 49889. 49807.    NA 
#>  7 1980 Jul Private Service-Providing    49962 50026  50007. 49969.    NA 
#>  8 1980 Aug Private Service-Providing    50081 50071. 50103  50146. 49910.
#>  9 1980 Sep Private Service-Providing    50171 50173. 50196. 50179. 50019.
#> 10 1980 Oct Private Service-Providing    50266 50312  50391. 50191. 50150.
#> # ℹ 467 more rows
```
…
