.b[Forecasting residual analysis]
…
---

# An example

<img src="006-residuals_files/figure-html/unnamed-chunk-2-1.svg" style="display: block; margin: auto;" />

---

# An example

<br>

```
#> # A tsibble: 290 x 6 [1]
#> # Key:       .model [1]
#>    .model        day  exch .fitted    .resid    .innov
#>    <chr>       <int> <dbl>   <dbl>     <dbl>     <dbl>
#>  1 naive_model  1016 NA      NA    NA        NA       
#>  2 naive_model  1017  1.06   NA    NA        NA       
#>  3 naive_model  1018  1.06    1.06  0.00610   0.00610 
#>  4 naive_model  1019  1.05    1.06 -0.00980  -0.00980 
#>  5 naive_model  1020  1.06    1.05  0.00970   0.00970 
#>  6 naive_model  1021  1.08    1.06  0.0140    0.0140  
#>  7 naive_model  1022  1.07    1.08 -0.00220  -0.00220 
#>  8 naive_model  1023  1.07    1.07  0.000300  0.000300
#>  9 naive_model  1024  1.08    1.07  0.00830   0.00830 
#> 10 naive_model  1025  1.08    1.08 -0.00120  -0.00120 
#> # ℹ 280 more rows
```
…
.center[
<img src="b.png", width = "80%">
]

---

# Prediction intervals

For our previous example,

<br>

```
#> # A tsibble: 30 x 6 [1]
#> # Key:       .model [1]
#>    .model        day            exch .mean                  `80%`                  `95%`
#>    <chr>       <dbl>          <dist> <dbl>                 <hilo>                 <hilo>
#>  1 naive_model  1306 N(1.1, 2.7e-05)  1.08 [1.071523, 1.084877]80 [1.067989, 1.088411]95
#>  2 naive_model  1307 N(1.1, 5.4e-05)  1.08 [1.068758, 1.087642]80 [1.063760, 1.092640]95
#>  3 naive_model  1308 N(1.1, 8.1e-05)  1.08 [1.066636, 1.089764]80 [1.060514, 1.095886]95
#>  4 naive_model  1309 N(1.1, 0.00011)  1.08 [1.064847, 1.091553]80 [1.057778, 1.098622]95
#>  5 naive_model  1310 N(1.1, 0.00014)  1.08 [1.063271, 1.093129]80 [1.055368, 1.101032]95
#>  6 naive_model  1311 N(1.1, 0.00016)  1.08 [1.061846, 1.094554]80 [1.053188, 1.103212]95
#>  7 naive_model  1312 N(1.1, 0.00019)  1.08 [1.060535, 1.095865]80 [1.051184, 1.105216]95
#>  8 naive_model  1313 N(1.1, 0.00022)  1.08 [1.059316, 1.097084]80 [1.049319, 1.107081]95
#>  9 naive_model  1314 N(1.1, 0.00024)  1.08 [1.058170, 1.098230]80 [1.047567, 1.108833]95
#> 10 naive_model  1315 N(1.1, 0.00027)  1.08 [1.057087, 1.099313]80 [1.045910, 1.110490]95
#> # ℹ 20 more rows
```
…
