.b[Exponential smoothing: Introduction]
…
---

# Simple exponential smoothing

```r
unemp_ets_fit <- unemp_ts |> 
  model(SES = ETS(unrate ~ error("A") + trend("N") + season("N"))) # "A" = additive; "N" = none.

unemp_ets_fit |> 
  augment()
```

```
#> # A tsibble: 136 x 6 [1Q]
#> # Key:       .model [1]
#>    .model    date unrate .fitted  .resid  .innov
#>    <chr>    <qtr>  <dbl>   <dbl>   <dbl>   <dbl>
#>  1 SES    1990 Q1   5.3     5.32 -0.0239 -0.0239
#>  2 SES    1990 Q2   5.33    5.30  0.0287  0.0287
#>  3 SES    1990 Q3   5.7     5.33  0.372   0.372 
#>  4 SES    1990 Q4   6.13    5.63  0.506   0.506 
#>  5 SES    1991 Q1   6.6     6.03  0.565   0.565 
#>  6 SES    1991 Q2   6.83    6.49  0.343   0.343 
#>  7 SES    1991 Q3   6.87    6.77  0.100   0.100 
#>  8 SES    1991 Q4   7.1     6.85  0.253   0.253 
#>  9 SES    1992 Q1   7.37    7.05  0.316   0.316 
#> 10 SES    1992 Q2   7.6     7.31  0.295   0.295 
#> # ℹ 126 more rows
```

---

# Simple exponential smoothing

```r
unemp_ets_fit <- unemp_ts |> 
  model(SES = ETS(unrate ~ error("A") + trend("N") + season("N"))) # "A" = additive; "N" = none.

unemp_ets_fit |> 
  augment() 
```

```
#> # A tsibble: 136 x 6 [1Q]
#> # Key:       .model [1]
#>    .model    date unrate .fitted  .resid  .innov
#>    <chr>    <qtr>  <dbl>   <dbl>   <dbl>   <dbl>
*#>  1 SES    1990 Q1   5.3     5.32 -0.0239 -0.0239
#>  2 SES    1990 Q2   5.33    5.30  0.0287  0.0287
#>  3 SES    1990 Q3   5.7     5.33  0.372   0.372 
#>  4 SES    1990 Q4   6.13    5.63  0.506   0.506 
#>  5 SES    1991 Q1   6.6     6.03  0.565   0.565 
#>  6 SES    1991 Q2   6.83    6.49  0.343   0.343 
#>  7 SES    1991 Q3   6.87    6.77  0.100   0.100 
#>  8 SES    1991 Q4   7.1     6.85  0.253   0.253 
#>  9 SES    1992 Q1   7.37    7.05  0.316   0.316 
#> 10 SES    1992 Q2   7.6     7.31  0.295   0.295 
#> # ℹ 126 more rows
```
…
