.b[ARIMA models: Introduction]
…
---

# Stationarity

```r
air_ts |> 
  mutate(diff_passengers = difference(passengers, lag = 1),
         seas_diff_passengers = difference(passengers, lag = 12),
         diff_log_passengers = difference(log(passengers), lag = 1),
         seas_diff_log_passengers = difference(log(passengers), lag = 12))
```

```
#> # A tsibble: 144 x 6 [1M]
#>        date passengers diff_passengers seas_diff_passengers diff_log_passengers seas_diff_log_passengers
#>       <mth>      <dbl>           <dbl>                <dbl>               <dbl>                    <dbl>
#>  1 1949 Jan        112              NA                   NA             NA                            NA
#>  2 1949 Feb        118               6                   NA              0.0522                       NA
#>  3 1949 Mar        132              14                   NA              0.112                        NA
#>  4 1949 Apr        129              -3                   NA             -0.0230                       NA
#>  5 1949 May        121              -8                   NA             -0.0640                       NA
#>  6 1949 Jun        135              14                   NA              0.109                        NA
#>  7 1949 Jul        148              13                   NA              0.0919                       NA
#>  8 1949 Aug        148               0                   NA              0                            NA
#>  9 1949 Sep        136             -12                   NA             -0.0846                       NA
#> 10 1949 Oct        119             -17                   NA             -0.134                        NA
#> # ℹ 134 more rows
```
…
